{
  "data": {
    "1st": {
      "cakeImage": "http://i.puza.in/c/cake1.jpg",
      "monthImage": "http://i.puza.in/m/month1.jpg",
      "achivement": "Yepee! I am now a month old. Wow! what a beautiful world it is ! My Dadi Dadu went back to India and I am so gonna miss them. Now I can hold my eye contact and study faces but I cannot control my Tongue, in and out everytime. I love giving SMILE and make my parents happy. One month was very quite and peacefull for them, and they think I am a very quite baby but now it's time to give them some sleepless nights ;) Fussy Fussy me.."
    },
    "2st": {
      "cakeImage": "http://i.puza.in/c/cake2.jpg",
      "monthImage": "http://i.puza.in/m/month2.jpg",
      "achivement": "Mommy darling and Papa darling..look at you both seems like haven't slept for nights..LoL ;) WINK WINK! But yes when I gave them a cute Smile and now I can Giggle a lot all their tiredness goes away.(I heard mommy saying this to Papa...cutu cutu me..). I try look at them and balance my neck,I love to stretch out my arms and legs, which my Doctor says are Achivements and I am growing fast."
    },
    "3rd": {
      "cakeImage": "http://i.puza.in/c/cake3.jpg",
      "monthImage": "http://i.puza.in/m/month3.jpg",
      "achivement": "I love tummy time...Love it love it Love it! While doing tummy time I can do little push ups and flip other side. What I love more is to open my hands and swipes at things. Swing time is the best time to calm me down specially with my pacifier. I love to sit with some support. and yes most important I got my passport and Indian Visa, now I can travel, which I guess pretty soon coz my mommy is so excited about it and planning some visit."
    },
    "4th": {
      "cakeImage": "http://i.puza.in/c/cake4.jpg",
      "monthImage": "http://i.puza.in/m/month4.jpg",
      "achivement": "Oh yes! She was pretty serious about the trip because right now I am in India! First flight experience was hahaha Great, my mommy will not forget it. Will tell you more in travel section. But yes ,it's great to finally meet my lovely family. I got so excited that I throw my hands and legs like anything and I babble a lot...alot ;) wanna tell everyone how happy I am.  "
    },
    "5th": {
      "cakeImage": "http://i.puza.in/c/cake5.jpg",
      "monthImage": "http://i.puza.in/m/month5.jpg",
      "achivement": "Wow! what a big and lovely family I have. Everyone was trying to teach me something. I am a chatter box now. Going back tomorrow and will meet my Papa.. missed him here and now gonna miss my family."
    },
    "6th": {
      "cakeImage": "http://i.puza.in/c/cake6.jpg",
      "monthImage": "http://i.puza.in/m/month6.jpg",
      "achivement": "My Doctor told my parents now its time to start some solid food as I have mastered in Sitting up by my own which help me digest food and buy me a high chair. Here I was planning which delicious food I am gonna eat first and my parents had something else in mind...they gave me mashed strawberries..eeeew I did't liked it at all and started pushing it back through my tongue. My happiness suddenly turned into a huge cry..But eventually they know my likes and dislikes....I Love spinach, carrot & beatroot juice, Avacado and almond milk ,and easy fruit Banan. haha! my Papa is so coool. He taught me how to hold my bottle..smart act papa now u both are free i can handle my meal, you just have to give it to me...that's it and your job is done ;) My lovely Baaaapa and Meemi.."
    },
    "7th": {
      "cakeImage": "http://i.puza.in/c/cake7.jpg",
      "monthImage": "http://i.puza.in/m/month7.jpg",
      "achivement": "I Love to play with my hands and legs. Try to take my leg's thumb in my mouth heheheh its fun! Now I can go from one corner to another as I am learing how to crawl...I will learn slowly slowly. and yes one of my favourite sound which my meemi or baapa makes, to make me happy AAiika AAIIk AAik AAIIK and I becomes a dolphine, starts throwing my legs and hands laying on my tummy....:) I had my first road trip to New Mexico..it was fun but tiring as well."
    },
    "8th": {
      "cakeImage": "http://i.puza.in/c/cake8.jpg",
      "monthImage": "http://i.puza.in/m/month8.jpg",
      "achivement": "I am more active now....always ready to explore something..see my home pillows everywhere to protect me to get hurt and yes helmet on my head. Crawling makes my world more happening..I can easily grab things in my reach and makes Meemi more angry...hahah Isn't it Cute...Well ya ask my mommy...who is always running after me as I am ready to mess her Mandir..Trying to stand by the table...bump my head...uuufff mummy is so so frustrated but still you know me and my smile which makes her more happier than before."
    },
    "9th": {
      "cakeImage": "http://i.puza.in/c/cake9.jpg",
      "monthImage": "http://i.puza.in/m/month9.jpg",
      "achivement": "I am not stopping now, standing is fun with the support of my toy...this is cruising and my favourite target is still my mommy's Mandir and her kitchen specially the dustbin. One thing I discovered abt myself is I love dancing. oooo yaa! I can dance on any beat but my favourite number is 'Laung Lachi'. Love this song..U don't belive me play it and i'll show you my moves heehehhehe."
    },
    "10th": {
      "cakeImage": "http://i.puza.in/c/cake10.jpg",
      "monthImage": "http://i.puza.in/m/month10.jpg",
      "achivement": "WOW Baapa dear, you bought me a walker....but it's too fast for me i might fall down...but here you are to hold me every time I try to walk. My fisrt step with you was so overwheling. Aww sweet Baapa. Love you a lot. Hey this walker can sing as well 'Walking Walking Walking' hhhhaha so entertaining."
    },
    "11th": {
      "cakeImage": "http://i.puza.in/c/cake11.jpg",
      "monthImage": "http://i.puza.in/m/month11.jpg",
      "achivement": ""
    },
    "12th": {
      "cakeImage": "http://i.puza.in/c/cake12.jpg",
      "monthImage": "http://i.puza.in/m/month12.jpg",
      "achivement": "Now with a smile She can turn her head and tries to balance her neck."
    }
  }
}
